<!DOCTYPE html>
<html lang="en">
<head>
    <meta charset="UTF-8">
    <meta http-equiv="X-UA-Compatible" content="IE=edge">
    <meta name="viewport" content="width=device-width, initial-scale=1.0">
    <title>VendorBill</title>
</head>
<body>
    <!-- Latest compiled and minified CSS -->
 
  <style>


table {
    width:100%;
}


.grid  {
    display: table-header-group;
    vertical-align: middle;
    border-color: inherit;
}


 .grid {
    font-weight: bold;font-size: 8pt; vertical-align: middle;padding: 5px 6px 3px;background-color: #e3e3e3;color: #333333;
}
    </style>
    <table style="width: 100%;order: 1px solid black;   border-collapse: collapse;">
<tr>     
<td style="border: 1px solid black">Transaction Number</td>     
<td style="border: 1px solid black">{tranid}</td>     
  </tr> 
  
  <tr>     
  <td style="border: 1px solid black">Description</td>    
  <td style="border: 1px solid black">{memo}</td>      
  </tr>  
  
  <tr>     
  <td style="border: 1px solid black">Transaction Amount</td>  
  <td style="border: 1px solid black">{usertotal}</td>   
  </tr>
        
    </table>


   
</body>
</html>
